[api-updater (non-obsolete-error-filter)] 19.03.2022 10:04:05 : Starting G:/Programy/UnityCDS/2020.3.24f1/Editor/Data/Tools/ScriptUpdater/APIUpdater.NonObsoleteApiUpdaterDetector.exe
[api-updater (non-obsolete-error-filter)] 
----------------------------------
jit/startup time      : 552,7287ms
moved types parse time: 42ms
candidates parse time : 0ms
C# parse time         : 513ms
candidates check time : 38ms
console write time    : 0ms

[api-updater (non-obsolete-error-filter)] 19.03.2022 10:44:39 : Starting G:/Programy/UnityCDS/2020.3.24f1/Editor/Data/Tools/ScriptUpdater/APIUpdater.NonObsoleteApiUpdaterDetector.exe
[api-updater (non-obsolete-error-filter)] 
----------------------------------
jit/startup time      : 65,7126ms
moved types parse time: 42ms
candidates parse time : 0ms
C# parse time         : 134ms
candidates check time : 23ms
console write time    : 0ms

[api-updater (non-obsolete-error-filter)] 19.03.2022 11:28:21 : Starting G:/Programy/UnityCDS/2020.3.24f1/Editor/Data/Tools/ScriptUpdater/APIUpdater.NonObsoleteApiUpdaterDetector.exe
[api-updater (non-obsolete-error-filter)] 
----------------------------------
jit/startup time      : 664,0026ms
moved types parse time: 41ms
candidates parse time : 0ms
C# parse time         : 542ms
candidates check time : 50ms
console write time    : 0ms

[api-updater (non-obsolete-error-filter)] 19.03.2022 11:28:27 : Starting G:/Programy/UnityCDS/2020.3.24f1/Editor/Data/Tools/ScriptUpdater/APIUpdater.NonObsoleteApiUpdaterDetector.exe
[api-updater (non-obsolete-error-filter)] 
----------------------------------
jit/startup time      : 60,8353ms
moved types parse time: 44ms
candidates parse time : 0ms
C# parse time         : 168ms
candidates check time : 136ms
console write time    : 0ms

[api-updater (non-obsolete-error-filter)] 19.03.2022 11:42:25 : Starting G:/Programy/UnityCDS/2020.3.24f1/Editor/Data/Tools/ScriptUpdater/APIUpdater.NonObsoleteApiUpdaterDetector.exe
[api-updater (non-obsolete-error-filter)] 
----------------------------------
jit/startup time      : 57,8454ms
moved types parse time: 48ms
candidates parse time : 0ms
C# parse time         : 153ms
candidates check time : 41ms
console write time    : 0ms

[api-updater (non-obsolete-error-filter)] 20.03.2022 19:00:54 : Starting G:/Programy/UnityCDS/2020.3.24f1/Editor/Data/Tools/ScriptUpdater/APIUpdater.NonObsoleteApiUpdaterDetector.exe
[api-updater (non-obsolete-error-filter)] 
----------------------------------
jit/startup time      : 702,9036ms
moved types parse time: 46ms
candidates parse time : 1ms
C# parse time         : 551ms
candidates check time : 39ms
console write time    : 0ms

[api-updater (non-obsolete-error-filter)] 20.03.2022 19:00:55 : Starting G:/Programy/UnityCDS/2020.3.24f1/Editor/Data/Tools/ScriptUpdater/APIUpdater.NonObsoleteApiUpdaterDetector.exe
[api-updater (non-obsolete-error-filter)] 
----------------------------------
jit/startup time      : 56,8485ms
moved types parse time: 43ms
candidates parse time : 0ms
C# parse time         : 156ms
candidates check time : 38ms
console write time    : 0ms

[api-updater (non-obsolete-error-filter)] 20.03.2022 19:02:54 : Starting G:/Programy/UnityCDS/2020.3.24f1/Editor/Data/Tools/ScriptUpdater/APIUpdater.NonObsoleteApiUpdaterDetector.exe
[api-updater (non-obsolete-error-filter)] 
----------------------------------
jit/startup time      : 55,8499ms
moved types parse time: 40ms
candidates parse time : 0ms
C# parse time         : 167ms
candidates check time : 37ms
console write time    : 0ms

[api-updater (non-obsolete-error-filter)] 20.03.2022 19:02:54 : Starting G:/Programy/UnityCDS/2020.3.24f1/Editor/Data/Tools/ScriptUpdater/APIUpdater.NonObsoleteApiUpdaterDetector.exe
[api-updater (non-obsolete-error-filter)] 
----------------------------------
jit/startup time      : 52,8862ms
moved types parse time: 40ms
candidates parse time : 0ms
C# parse time         : 154ms
candidates check time : 34ms
console write time    : 0ms

